[
  {
    "contract_name": "Ethereum",
    "contract_ticker_symbol": "ETH",
    "contract_decimals": 18,
    "contract_address": "014a6d0fd09fe2e6853a76caedcb46646ab7ee69d6",
    "coin": 0,
    "type": "BOYC",
    "logo_url": "https://assets.unmarshal.io/tokens/partisia_014a6d0fd09fe2e6853a76caedcb46646ab7ee69d6.png",
    "verified": true,
    "quote_rate": 3019.08,
    "quote_rate_24h": 0,
    "quote_pct_change_24h": 0,
    "balance": "6545801250693603",
    "quote": 19.762297639944045
  },
  {
    "contract_name": "Matic",
    "contract_ticker_symbol": "MATIC",
    "contract_decimals": 18,
    "contract_address": "01d9f82e98a22b319aa371e752f3e0d85bd96c9545",
    "coin": 0,
    "type": "BOYC",
    "logo_url": "https://assets.unmarshal.io/tokens/partisia_01d9f82e98a22b319aa371e752f3e0d85bd96c9545.png",
    "verified": true,
    "quote_rate": 0.690111,
    "quote_rate_24h": 0,
    "quote_pct_change_24h": 0,
    "balance": "2000000000000",
    "quote": 1.380222e-06
  },
  {
    "contract_name": "Binance Smart Chain",
    "contract_ticker_symbol": "USDC",
    "contract_decimals": 18,
    "contract_address": "0137f4da8ad6a9a5305383953d4b3a9c7859c08bea",
    "coin": 0,
    "type": "BOYC",
    "logo_url": "https://assets.unmarshal.io/tokens/partisia_0137f4da8ad6a9a5305383953d4b3a9c7859c08bea.png",
    "verified": true,
    "quote_rate": 586.1,
    "quote_rate_24h": 0,
    "quote_pct_change_24h": 0,
    "balance": "100000000",
    "quote": 5.8610000000000007e-08
  },
  {
    "contract_name": "MPC20Contract",
    "contract_ticker_symbol": "MPC20",
    "contract_decimals": 18,
    "contract_address": "020248889171091d122569a6801bdc739ceab215bf",
    "coin": 0,
    "type": "MPC20",
    "logo_url": "https://assets.unmarshal.io/tokens/partisia_020248889171091d122569a6801bdc739ceab215bf.png",
    "verified": true,
    "quote_rate": 0,
    "quote_rate_24h": 0,
    "quote_pct_change_24h": 0,
    "balance": "1000000000000000000000",
    "quote": 0
  },
  {
    "contract_name": "Darknet",
    "contract_ticker_symbol": "DNET",
    "contract_decimals": 8,
    "contract_address": "020aad7d91fd71d8bbe92b81113c93995740bff517",
    "coin": 0,
    "type": "PBC",
    "logo_url": "https://assets.unmarshal.io/tokens/partisia_020aad7d91fd71d8bbe92b81113c93995740bff517.png",
    "verified": true,
    "quote_rate": 0,
    "quote_rate_24h": 0,
    "quote_pct_change_24h": 0,
    "balance": "25",
    "quote": 0
  },
  {
    "contract_name": "StarTlinG",
    "contract_ticker_symbol": "STH",
    "contract_decimals": 4,
    "contract_address": "02111a089b4657548557d6909386516b36fab7fc15",
    "coin": 0,
    "type": "PBC",
    "logo_url": "https://assets.unmarshal.io/tokens/partisia_02111a089b4657548557d6909386516b36fab7fc15.png",
    "verified": true,
    "quote_rate": 0,
    "quote_rate_24h": 0,
    "quote_pct_change_24h": 0,
    "balance": "200170000",
    "quote": 0
  },
  {
    "contract_name": "DispaBall",
    "contract_ticker_symbol": "DBall",
    "contract_decimals": 4,
    "contract_address": "0214e35f9fce2d0d793860a0a934ce69d55a5cc395",
    "coin": 0,
    "type": "PBC",
    "logo_url": "https://assets.unmarshal.io/tokens/partisia_0214e35f9fce2d0d793860a0a934ce69d55a5cc395.png",
    "verified": true,
    "quote_rate": 0,
    "quote_rate_24h": 0,
    "quote_pct_change_24h": 0,
    "balance": "1",
    "quote": 0
  },
  {
    "contract_name": "bulldog",
    "contract_ticker_symbol": "BLG",
    "contract_decimals": 255,
    "contract_address": "021b0737c5cc6f18abade8bfb8f5685a6651b4b981",
    "coin": 0,
    "type": "PBC",
    "logo_url": "https://assets.unmarshal.io/tokens/partisia_021b0737c5cc6f18abade8bfb8f5685a6651b4b981.png",
    "verified": true,
    "quote_rate": 0,
    "quote_rate_24h": 0,
    "quote_pct_change_24h": 0,
    "balance": "12",
    "quote": 0
  },
  {
    "contract_name": "mamont",
    "contract_ticker_symbol": "MAM",
    "contract_decimals": 100,
    "contract_address": "028f54785c9569fdc1f7c59769c319f35903e31630",
    "coin": 0,
    "type": "PBC",
    "logo_url": "https://assets.unmarshal.io/tokens/partisia_028f54785c9569fdc1f7c59769c319f35903e31630.png",
    "verified": true,
    "quote_rate": 0,
    "quote_rate_24h": 0,
    "quote_pct_change_24h": 0,
    "balance": "7",
    "quote": 0
  },
  {
    "contract_name": "rery",
    "contract_ticker_symbol": "BSD",
    "contract_decimals": 32,
    "contract_address": "02b125efa9dc2fa32620a50b913a3d7ae625f5a820",
    "coin": 0,
    "type": "PBC",
    "logo_url": "https://assets.unmarshal.io/tokens/partisia_02b125efa9dc2fa32620a50b913a3d7ae625f5a820.png",
    "verified": true,
    "quote_rate": 0,
    "quote_rate_24h": 0,
    "quote_pct_change_24h": 0,
    "balance": "5",
    "quote": 0
  },
  {
    "contract_name": "MPCToken",
    "contract_ticker_symbol": "MPCToken",
    "contract_decimals": 4,
    "contract_address": "MPCToken",
    "coin": 0,
    "type": "MPC",
    "logo_url": "https://assets.unmarshal.io/tokens/partisia_MPCToken.png",
    "verified": true,
    "quote_rate": 0,
    "quote_rate_24h": 0,
    "quote_pct_change_24h": 0,
    "balance": "83421700",
    "quote": 0
  }
]
