<svg width="170" height="28" viewBox="0 0 170 28" fill="none" xmlns="http://www.w3.org/2000/svg">
<path d="M26.4771 0H23.5758V3.98855C23.5758 7.87983 20.3684 11.0358 16.4085 11.0501H9.90202C4.85481 11.0501 0.766113 15.0672 0.766113 20.02V24H9.4242V20.0114C9.4242 16.1202 12.6316 12.9642 16.5916 12.9528H23.098C28.1424 12.9528 32.2339 8.93848 32.2339 3.98283V0H26.48H26.4771Z" fill="#1D70EA"/>
<path d="M5.88255 8.67525C8.27815 8.67525 10.2202 6.73323 10.2202 4.33763C10.2202 1.94202 8.27815 0 5.88255 0C3.48694 0 1.54492 1.94202 1.54492 4.33763C1.54492 6.73323 3.48694 8.67525 5.88255 8.67525Z" fill="#1D70EA"/>
<path d="M42.3743 24V6.792H46.1663L50.2463 13.248L50.9903 14.496H51.0623C51.3023 14.04 51.5423 13.68 51.8303 13.2L55.7903 6.792H59.5823V24H56.1023V12.384H56.0063C55.8623 12.696 55.5503 13.272 55.2143 13.848L52.1423 18.768H49.8143L46.6943 13.848C46.3583 13.296 46.0703 12.696 45.9503 12.384H45.8543V24H42.3743ZM63.2337 24V6.792H70.1217C74.6097 6.792 76.2177 9.264 76.2177 12.072C76.2177 14.832 74.6337 17.544 69.6177 17.544H66.9057V24H63.2337ZM66.9057 14.52H69.8097C71.2257 14.52 72.6657 14.016 72.6657 12.144C72.6657 10.272 71.1777 9.912 69.8337 9.912H66.9057V14.52ZM85.5692 24.432C80.5052 24.432 77.6492 20.976 77.6492 15.6C77.6492 10.152 80.6732 6.36 85.8092 6.36C90.6812 6.36 92.6972 9.24 93.0572 12.504H89.5292C89.0972 10.992 87.8972 9.744 85.7852 9.744C82.4972 9.744 81.2972 12.528 81.2972 15.48C81.2972 18.384 82.4492 21.048 85.7612 21.048C88.2332 21.048 89.1692 19.656 89.5052 18.144H93.0572C92.6252 21.864 90.0332 24.432 85.5692 24.432ZM103.046 24L98.7495 6.792H102.23L104.438 15.696C104.678 16.632 104.846 17.688 105.038 18.984H105.134C105.326 17.688 105.494 16.68 105.734 15.72L107.822 6.792H111.854L113.966 15.816C114.206 16.8 114.374 17.784 114.494 18.984H114.59C114.782 17.784 114.95 16.8 115.214 15.816L117.494 6.792H120.854L116.486 24H112.694L110.75 15.624C110.366 13.968 110.054 12.192 109.862 10.752H109.766C109.574 12.192 109.262 13.968 108.854 15.648L106.91 24H103.046ZM124.26 24.336C122.052 24.336 120.348 23.04 120.348 20.616C120.348 18.336 121.86 17.184 124.212 16.704L127.044 16.128C127.524 16.032 127.956 15.792 127.956 15.192C127.956 14.424 127.356 13.776 126.012 13.776C124.74 13.776 123.9 14.376 123.9 15.264H120.756C120.756 12.504 123.012 10.944 126.108 10.944C128.82 10.944 131.076 12.144 131.076 15.072V20.52C131.076 21.048 131.388 21.312 131.868 21.312H132.18V24H129.9C128.7 24 128.1 23.4 128.1 22.416V22.176H128.004C127.164 23.808 125.604 24.336 124.26 24.336ZM123.66 20.496C123.66 21.312 124.188 21.744 125.1 21.744C126.732 21.744 127.956 20.328 127.956 18.72V18.312C127.812 18.408 127.524 18.48 127.188 18.552L125.268 18.96C124.332 19.152 123.66 19.584 123.66 20.496ZM137.192 24C135.344 24 134.168 23.376 134.168 21.144V6.792H137.456V20.28C137.456 20.928 137.792 21.216 138.392 21.216H139.352V24H137.192ZM143.965 24C142.117 24 140.941 23.376 140.941 21.144V6.792H144.229V20.28C144.229 20.928 144.565 21.216 145.165 21.216H146.125V24H143.965ZM152.971 24.432C149.419 24.432 147.139 22.2 147.139 17.832C147.139 13.488 149.563 10.944 153.091 10.944C156.523 10.944 158.803 13.32 158.803 17.568C158.803 18 158.779 18.336 158.755 18.648H150.379C150.571 20.592 151.411 21.576 153.019 21.576C154.147 21.576 154.939 21.096 155.203 20.136H158.419C158.083 22.704 156.115 24.432 152.971 24.432ZM150.427 16.416H155.707C155.515 14.832 154.699 13.8 153.043 13.8C151.795 13.8 150.715 14.4 150.427 16.416ZM165.453 24C163.173 24 161.709 23.328 161.709 20.4V14.256H159.741V11.376H161.709V8.088H165.021V11.376H167.853V14.256H165.021V20.088C165.021 20.928 165.285 21.312 166.197 21.312H167.853V24H165.453Z" fill="black"/>
</svg>
