<svg width="159" height="130" viewBox="0 0 159 130" fill="none" xmlns="http://www.w3.org/2000/svg">
<g id="Frame" clip-path="url(#clip0_531_8082)">
<g id="Group">
<path id="Vector" d="M101.7 19.2998V23.3998C101.7 25.4998 100 27.1998 97.9 27.1998H62.2999C60.1999 27.1998 58.5 25.4998 58.5 23.3998V19.2998H54.2V23.3998C54.2 27.7998 57.7999 31.4998 62.2999 31.4998H97.9C102.3 31.4998 106 27.8998 106 23.3998V19.2998H101.7Z" fill="#ECF1FF"/>
<path id="Vector_2" d="M41.6 19.2998H37.3V82.6998H41.6V19.2998Z" fill="#ECF1FF"/>
<path id="Vector_3" d="M81.4463 128.944V124.644H49.1463V128.944H81.4463Z" fill="#ECF1FF"/>
<g id="Group_2">
<path id="Vector_4" d="M29.7002 119.3V82.6001H18.2002V119.3C18.2002 121.4 19.9002 123.1 22.0002 123.1H33.6002C31.4002 123.1 29.7002 121.4 29.7002 119.3Z" fill="#ECF1FF"/>
<path id="Vector_5" d="M52.9002 82.6001H18.2002V119C18.2002 121.2 20.0002 123 22.2002 123H49.0002C51.2002 123 53.0002 121.2 53.0002 119V82.6001H52.9002Z" stroke="#1D70EA" stroke-width="2" stroke-miterlimit="10" stroke-linecap="round" stroke-linejoin="round"/>
<path id="Vector_6" d="M49.2001 123.1H21.9001V129H49.2001V123.1Z" fill="#1D70EA" stroke="#1D70EA" stroke-width="2" stroke-miterlimit="10" stroke-linecap="round" stroke-linejoin="round"/>
<path id="Vector_7" d="M18.2001 116.3H14.6001C10.2001 116.3 6.6001 112.7 6.6001 108.3V97.3003C6.6001 92.9003 10.2001 89.3003 14.6001 89.3003H18.2001V116.3Z" stroke="#1D70EA" stroke-width="2" stroke-miterlimit="10" stroke-linecap="round" stroke-linejoin="round"/>
</g>
<g id="Group_3">
<path id="Vector_8" d="M91.0001 122.2C89.6001 126.1 85.8001 129 81.4001 129H142.4C146.8 129 150.6 126.2 152 122.2H91.0001Z" fill="#ECF1FF"/>
<path id="Vector_9" d="M81.4001 129C85.8001 129 89.6001 126.2 91.0001 122.2L61.1001 118.8L81.4001 129Z" fill="#ECF1FF"/>
<path id="Vector_10" d="M81.4001 129H142.4C148 129 152.6 124.4 152.6 118.8C152.6 113.2 148 108.6 142.4 108.6H81.4001C87.0001 108.6 91.6001 113.2 91.6001 118.8C91.6001 124.4 87.0001 129 81.4001 129Z" stroke="#1D70EA" stroke-width="2" stroke-miterlimit="10" stroke-linecap="round" stroke-linejoin="round"/>
<path id="Vector_11" d="M148.5 118.8C148.5 124.4 143.9 129 138.3 129H142.4C148 129 152.6 124.4 152.6 118.8C152.6 113.2 148 108.6 142.4 108.6H138.3C144 108.7 148.5 113.2 148.5 118.8Z" stroke="#1D70EA" stroke-width="2" stroke-miterlimit="10" stroke-linecap="round" stroke-linejoin="round"/>
<path id="Vector_12" d="M81.4001 129L61.1001 118.8L81.4001 108.7" stroke="#1D70EA" stroke-width="2" stroke-miterlimit="10" stroke-linecap="round" stroke-linejoin="round"/>
<path id="Vector_13" d="M70.2001 123.4C70.9001 122 71.3001 120.5 71.3001 118.9C71.3001 117.3 70.9001 115.7 70.2001 114.4L61.1001 118.9L70.2001 123.4Z" fill="#1D70EA" stroke="#1D70EA" stroke-width="2" stroke-miterlimit="10" stroke-linecap="round" stroke-linejoin="round"/>
</g>
<path id="Vector_14" d="M101.7 19.2998H122.9V108.7" stroke="#1D70EA" stroke-width="2" stroke-miterlimit="10" stroke-linecap="round" stroke-linejoin="round"/>
<path id="Vector_15" d="M37.3 82.5998V19.2998H58.6" stroke="#1D70EA" stroke-width="2" stroke-miterlimit="10" stroke-linecap="round" stroke-linejoin="round"/>
<path id="Vector_16" d="M12.5 129H154.9" stroke="#1D70EA" stroke-width="2" stroke-miterlimit="10" stroke-linecap="round" stroke-linejoin="round"/>
<path id="Vector_17" d="M87.5 11.4C88 9.99998 88.1 8.29998 87.6 6.59998C86.8 3.69998 84.3 1.49998 81.4 0.999984C76.5 0.199984 72.3 3.99998 72.3 8.69998C72.3 9.59998 72.5 10.5 72.8 11.3H62.3C60.2 11.3 58.5 13 58.5 15.1V23.3C58.5 25.4 60.2 27.1 62.3 27.1H97.9C100 27.1 101.7 25.4 101.7 23.3V15.1C101.7 13 100 11.3 97.9 11.3H87.5V11.4ZM80.1 11.2C78.7 11.2 77.5 9.99998 77.5 8.59998C77.5 7.19998 78.7 5.99998 80.1 5.99998C81.5 5.99998 82.7 7.19998 82.7 8.59998C82.7 9.99998 81.6 11.2 80.1 11.2Z" stroke="#1D70EA" stroke-width="2" stroke-miterlimit="10" stroke-linecap="round" stroke-linejoin="round"/>
<path id="Vector_18" d="M30.7999 48.9001C30.7999 48.7001 30.7999 48.5001 30.7999 48.4001C24.4999 47.2001 19.5 42.3001 18.3 36.1001C18.2 36.1001 18.1 36.1001 18 36.1001C17.9 36.1001 17.8 36.1001 17.7 36.1001C16.4 42.3001 11.5 47.2001 5.19995 48.4001C5.19995 48.6001 5.19995 48.7001 5.19995 48.9001C11.7 50.1001 16.7 55.2001 17.8 61.7001C17.9 61.7001 18 61.7001 18 61.7001C18.1 61.7001 18.2 61.7001 18.2 61.7001C19.3 55.2001 24.2999 50.1001 30.7999 48.9001Z" stroke="#1D70EA" stroke-width="2" stroke-miterlimit="10" stroke-linecap="round" stroke-linejoin="round"/>
<path id="Vector_19" d="M17.8 19.5998C17.8 19.4998 17.8 19.3998 17.8 19.2998C13.7 18.4998 10.5 15.2998 9.6 11.2998C9.5 11.2998 9.5 11.2998 9.4 11.2998C9.3 11.2998 9.3 11.2998 9.2 11.2998C8.4 15.3998 5.1 18.5998 1 19.2998C1 19.3998 1 19.4998 1 19.5998C5.2 20.3998 8.5 23.6998 9.2 27.9998C9.3 27.9998 9.3 27.9998 9.4 27.9998C9.5 27.9998 9.5 27.9998 9.6 27.9998C10.3 23.7998 13.6 20.3998 17.8 19.5998Z" stroke="#1D70EA" stroke-width="2" stroke-miterlimit="10" stroke-linecap="round" stroke-linejoin="round"/>
<g id="Group_4">
<path id="Vector_20" d="M157.6 87.7L154.2 81.9L149.2 84.8V79H142.5V84.8L137.5 81.9L134.2 87.7L139.1 90.6L134.2 93.5L137.5 99.3L142.5 96.4V102.2H149.2V96.4L154.2 99.3L157.6 93.5L152.6 90.6L157.6 87.7Z" stroke="#1D70EA" stroke-width="2" stroke-miterlimit="10" stroke-linecap="round" stroke-linejoin="round"/>
<path id="Vector_21" d="M157.6 57.8997L154.2 51.9997L149.2 54.8997V49.1997H142.5V54.8997L137.5 51.9997L134.2 57.8997L139.1 60.6997L134.2 63.5997L137.5 69.3997L142.5 66.5997V72.2997H149.2V66.5997L154.2 69.3997L157.6 63.5997L152.6 60.6997L157.6 57.8997Z" stroke="#1D70EA" stroke-width="2" stroke-miterlimit="10" stroke-linecap="round" stroke-linejoin="round"/>
<path id="Vector_22" d="M157.6 27.9998L154.2 22.1998L149.2 24.9998V19.2998H142.5V24.9998L137.5 22.1998L134.2 27.9998L139.1 30.8998L134.2 33.6998L137.5 39.5998L142.5 36.6998V42.3998H149.2V36.6998L154.2 39.5998L157.6 33.6998L152.6 30.8998L157.6 27.9998Z" stroke="#1D70EA" stroke-width="2" stroke-miterlimit="10" stroke-linecap="round" stroke-linejoin="round"/>
</g>
<g id="Group_5">
<path id="Vector_23" d="M100.086 54.9511L72.3677 82.6694L79.2973 89.599L107.016 61.8807L100.086 54.9511Z" fill="#1D70EA" stroke="#1D70EA" stroke-width="2" stroke-miterlimit="10" stroke-linecap="round" stroke-linejoin="round"/>
<path id="Vector_24" d="M79.2866 75.7752L65.4275 61.916L58.4979 68.8456L72.3571 82.7048L79.2866 75.7752Z" fill="#1D70EA" stroke="#1D70EA" stroke-width="2" stroke-miterlimit="10" stroke-linecap="round" stroke-linejoin="round"/>
</g>
</g>
</g>
<defs>
<clipPath id="clip0_531_8082">
<rect width="158.6" height="130" fill="white"/>
</clipPath>
</defs>
</svg>
